STAT/COMP 212 - Data wrangling - Part 1
…
Are there any diamonds of Fair cut that are more than $3000? Are all diamonds of Ideal cut more than $2000?

Create two new categorized versions of price by looking up the documentation for if_else() and case_when():

price_cat1: “low” if price is less than 500 and “high” otherwise

price_cat2: “low” if price is less than 500, “medium” if price is between 500 and 1000 dollars inclusive, and “high” otherwise.

Solution

# 1
diamonds %>% 
    filter(price < 400 | price > 10000)

# A tibble: 30 × 10
   carat cut       color clarity depth table price     x     y     z
   <dbl> <ord>     <ord> <ord>   <dbl> <dbl> <int> <dbl> <dbl> <dbl>
 1  0.23 Ideal     E     SI2      61.5    55   326  3.95  3.98  2.43
 2  0.21 Premium   E     SI1      59.8    61   326  3.89  3.84  2.31
 3  0.23 Good      E     VS1      56.9    65   327  4.05  4.07  2.31
 4  0.29 Premium   I     VS2      62.4    58   334  4.2   4.23  2.63
 5  0.31 Good      J     SI2      63.3    58   335  4.34  4.35  2.75
 6  0.24 Very Good J     VVS2     62.8    57   336  3.94  3.96  2.48
 7  0.24 Very Good I     VVS1     62.3    57   336  3.95  3.98  2.47
 8  0.26 Very Good H     SI1      61.9    55   337  4.07  4.11  2.53
 9  0.22 Fair      E     VS2      65.1    61   337  3.87  3.78  2.49
10  0.23 Very Good H     VS1      59.4    61   338  4     4.05  2.39
# ℹ 20 more rows

# 2
diamonds %>% 
    filter(price >= 500, price <= 600)

# A tibble: 90 × 10
   carat cut       color clarity depth table price     x     y     z
   <dbl> <ord>     <ord> <ord>   <dbl> <dbl> <int> <dbl> <dbl> <dbl>
 1  0.35 Ideal     I     VS1      60.9  57     552  4.54  4.59  2.78
 2  0.3  Premium   D     SI1      62.6  59     552  4.23  4.27  2.66
 3  0.3  Ideal     D     SI1      62.5  57     552  4.29  4.32  2.69
 4  0.3  Ideal     D     SI1      62.1  56     552  4.3   4.33  2.68
 5  0.42 Premium   I     SI2      61.5  59     552  4.78  4.84  2.96
 6  0.28 Ideal     G     VVS2     61.4  56     553  4.19  4.22  2.58
 7  0.32 Ideal     I     VVS1     62    55.3   553  4.39  4.42  2.73
 8  0.31 Very Good G     SI1      63.3  57     553  4.33  4.3   2.73
 9  0.31 Premium   G     SI1      61.8  58     553  4.35  4.32  2.68
10  0.24 Premium   E     VVS1     60.7  58     553  4.01  4.03  2.44
# ℹ 80 more rows
…
# 5
diamonds %>% 
    mutate(
        price_cat1 = if_else(price < 500, "low", "high"),
        price_cat2 = case_when(
            price < 500 ~ "low",
            price >= 500 & price <= 1000 ~ "medium",
            price > 1000 ~ "high"
        )
    )

# A tibble: 1,000 × 12
   carat cut       color clarity depth table price     x     y     z price_cat1
   <dbl> <ord>     <ord> <ord>   <dbl> <dbl> <int> <dbl> <dbl> <dbl> <chr>     
 1  0.23 Ideal     E     SI2      61.5    55   326  3.95  3.98  2.43 low       
 2  0.21 Premium   E     SI1      59.8    61   326  3.89  3.84  2.31 low       
 3  0.23 Good      E     VS1      56.9    65   327  4.05  4.07  2.31 low       
 4  0.29 Premium   I     VS2      62.4    58   334  4.2   4.23  2.63 low       
 5  0.31 Good      J     SI2      63.3    58   335  4.34  4.35  2.75 low       
 6  0.24 Very Good J     VVS2     62.8    57   336  3.94  3.96  2.48 low       
 7  0.24 Very Good I     VVS1     62.3    57   336  3.95  3.98  2.47 low       
 8  0.26 Very Good H     SI1      61.9    55   337  4.07  4.11  2.53 low       
 9  0.22 Fair      E     VS2      65.1    61   337  3.87  3.78  2.49 low       
10  0.23 Very Good H     VS1      59.4    61   338  4     4.05  2.39 low       
# ℹ 990 more rows
# ℹ 1 more variable: price_cat2 <chr>
…
Below we use extraction functions to get components of the date-time objects:

lakers_clean <- lakers %>%
    mutate(
        year = year(date),
        month = month(date),
        day = day(date),
        day_of_week = wday(date, label = TRUE),
        minute = minute(time),
        second = second(time)
    )
lakers_clean %>% select(year:second)

# A tibble: 34,624 × 6
    year month   day day_of_week minute second
   <dbl> <dbl> <int> <ord>        <dbl>  <dbl>
 1  2008    10    28 Tue             12      0
 2  2008    10    28 Tue             11     39
 3  2008    10    28 Tue             11     37
 4  2008    10    28 Tue             11     25
 5  2008    10    28 Tue             11     23
 6  2008    10    28 Tue             11     22
 7  2008    10    28 Tue             11     22
 8  2008    10    28 Tue             11     22
 9  2008    10    28 Tue             11      0
10  2008    10    28 Tue             10     53
# ℹ 34,614 more rows

lakers_clean <- lakers_clean %>%
    group_by(date, opponent, period) %>%
    arrange(date, opponent, period, desc(time)) %>%
    mutate(
        diff_btw_plays_sec = as.numeric(time - lag(time, 1))
    )
lakers_clean %>% select(date, opponent, time, period, diff_btw_plays_sec)

# A tibble: 34,624 × 5
# Groups:   date, opponent, period [314]
   date       opponent time     period diff_btw_plays_sec
   <date>     <chr>    <Period>  <int>              <dbl>
 1 2008-10-28 POR      12M 0S        1                 NA
 2 2008-10-28 POR      11M 39S       1                -21
 3 2008-10-28 POR      11M 37S       1                 -2
 4 2008-10-28 POR      11M 25S       1                -12
 5 2008-10-28 POR      11M 23S       1                 -2
 6 2008-10-28 POR      11M 22S       1                 -1
 7 2008-10-28 POR      11M 22S       1                  0
 8 2008-10-28 POR      11M 22S       1                  0
 9 2008-10-28 POR      11M 0S        1                -22
10 2008-10-28 POR      10M 53S       1                 -7
# ℹ 34,614 more rows
…
# 1
flights_parsed <- flights %>% 
    mutate(
        dep_time_hour = dep_time %/% 100,
        dep_time_min = dep_time %% 100,
        sched_dep_time_hour = sched_dep_time %/% 100,
        sched_dep_time_min = sched_dep_time %% 100,
        dep_time = make_datetime(year = year, month = month, day = day, hour = dep_time_hour, min = dep_time_min, sec = 0, tz = "EST"),
        sched_dep_time = make_datetime(year = year, month = month, day = day, hour = sched_dep_time_hour, min = sched_dep_time_min, sec = 0, tz = "EST"),
        dep_delay_computed = dep_time - sched_dep_time
    )
flights_parsed %>% 
    select(dep_delay, dep_delay_computed)

# A tibble: 336,776 × 2
   dep_delay dep_delay_computed
       <dbl> <drtn>            
 1         2  120 secs         
 2         4  240 secs         
 3         2  120 secs         
 4        -1  -60 secs         
 5        -6 -360 secs         
 6        -4 -240 secs         
 7        -5 -300 secs         
 8        -3 -180 secs         
 9        -3 -180 secs         
10        -2 -120 secs         
# ℹ 336,766 more rows

flights_parsed %>% 
    mutate(match = (dep_delay_computed/60)==dep_delay) %>% 
    filter(!match) %>% 
    select(dep_time, sched_dep_time, dep_delay, dep_delay_computed)

# A tibble: 1,207 × 4
   dep_time            sched_dep_time      dep_delay dep_delay_computed
   <dttm>              <dttm>                  <dbl> <drtn>            
 1 2013-01-01 08:48:00 2013-01-01 18:35:00       853 -35220 secs       
 2 2013-01-02 00:42:00 2013-01-02 23:59:00        43 -83820 secs       
 3 2013-01-02 01:26:00 2013-01-02 22:50:00       156 -77040 secs       
 4 2013-01-03 00:32:00 2013-01-03 23:59:00        33 -84420 secs       
 5 2013-01-03 00:50:00 2013-01-03 21:45:00       185 -75300 secs       
 6 2013-01-03 02:35:00 2013-01-03 23:59:00       156 -77040 secs       
 7 2013-01-04 00:25:00 2013-01-04 23:59:00        26 -84840 secs       
 8 2013-01-04 01:06:00 2013-01-04 22:45:00       141 -77940 secs       
 9 2013-01-05 00:14:00 2013-01-05 23:59:00        15 -85500 secs       
10 2013-01-05 00:37:00 2013-01-05 22:30:00       127 -78780 secs       
# ℹ 1,197 more rows
…
    mutate(
        partyid = fct_recode(partyid,
            "Republican, strong"    = "Strong republican",
            "Republican, weak"      = "Not str republican",
            "Independent, near rep" = "Ind,near rep",
            "Independent, near dem" = "Ind,near dem",
            "Democrat, weak"        = "Not str democrat",
            "Democrat, strong"      = "Strong democrat",
            "Other"                 = "No answer",
            "Other"                 = "Don't know",
            "Other"                 = "Other party"
        )
    )

# A tibble: 21,483 × 9
    year marital         age race  rincome        partyid    relig denom tvhours
   <int> <fct>         <int> <fct> <fct>          <fct>      <fct> <fct>   <int>
 1  2000 Never married    26 White $8000 to 9999  Independe… Prot… Sout…      12
 2  2000 Divorced         48 White $8000 to 9999  Republica… Prot… Bapt…      NA
 3  2000 Widowed          67 White Not applicable Independe… Prot… No d…       2
 4  2000 Never married    39 White Not applicable Independe… Orth… Not …       4
 5  2000 Divorced         25 White Not applicable Democrat,… None  Not …       1
 6  2000 Married          25 White $20000 - 24999 Democrat,… Prot… Sout…      NA
 7  2000 Never married    36 White $25000 or more Republica… Chri… Not …       3
 8  2000 Divorced         44 White $7000 to 7999  Independe… Prot… Luth…      NA
 9  2000 Married          44 White $25000 or more Democrat,… Prot… Other       0
10  2000 Married          47 White $25000 or more Republica… Prot… Sout…       3
# ℹ 21,473 more rows
…
